{
  "types": {
    "refactor": {
      "description": "Изменения, которые не исправляют ошибку и не добавляют функции"
    },
    "fix": {
      "description": "Изменения, исправляющие ошибку",
      "scopes": {
        "api": {
          "description": "Изменения, сделанные в интерфейсе или имплементации контроллера"
        },
        "serv": {
          "description": "Изменения, сделанные в интерфейсе или имплементации сервиса"
        },
        "repo": {
          "description": "Изменения, сделанные в интерфейсе или имплементации репозитория"
        },
        "dto": {
          "description": "Изменения, сделанные в dto"
        },
        "conf": {
          "description": "Изменения, сделанные в конфигурационых классах бинов"
        },
        "db": {
          "description": "Изменения, сделанные в файла миграций"
        }
      }
    },
    "feat": {
      "description": "Изменения, которые добавляют новую функцию",
      "scopes": {
        "api": {
          "description": "Изменения, сделанные в интерфейсе или имплементации контроллера"
        },
        "serv": {
          "description": "Изменения, сделанные в интерфейсе или имплементации сервиса"
        },
        "repo": {
          "description": "Изменения, сделанные в интерфейсе или имплементации репозитория"
        },
        "dto": {
          "description": "Изменения, сделанные в dto"
        },
        "conf": {
          "description": "Изменения, сделанные в конфигурационых классах бинов"
        },
        "db": {
          "description": "Изменения, сделанные в файла миграций"
        }
      }
    },
    "build": {
      "description": "Изменения, которые влияют на систему сборки или внешние зависимости.<br/>Примеры областей: pom, prop",
      "scopes": {
        "pom": {},
        "prop": {}
      }
    },
    "style": {
      "description": "Изменения, которые не влияют на логику кода, такие как пробелы, форматирование, пропущенные точки с запятой"
    },
    "test": {
      "description": "Изменения, которые добавляют или исправляют тесты"
    },
    "docs": {
      "description": "Изменения, влияющие на документацию"
    },
    "perf": {
      "description": "Изменения, повышающие производительность"
    },
    "ci": {
      "description": "Изменения, влияющие на конфигурационные файлы и скрипты CI"
    },
    "revert": {
      "description": "Изменения, которые отменяют предыдущий коммит"
    },
    "codegen": {
      "description": "Изменения, которые сделанны кодогенерацией"
    },
    "chore": {
      "description": "Другие изменения, которые не изменяют src или тесты"
    }
  },
  "footerTypes": [
    {
      "name": "BREAKING CHANGE",
      "description": "Коммит вносит существенные изменения в API"
    },
    {
      "name": "Closes",
      "description": "Коммит закрывает issues или merge requests"
    },
    {
      "name": "Implements",
      "description": "Коммит реализует функции"
    },
    {
      "name": "Co-authored-by",
      "description": "Коммит написан в соавторстве с другим человеком.<br/>Для нескольких авторов используйте по одной строке для каждого"
    },
    {
      "name": "Refs",
      "description": "Коммит ссылается на другие коммиты по их хэш-идентификатору.<br/> Для нескольких хэш-идентификаторов используйте запятую в качестве разделителя"
    }
  ]
}
